{
  "componentID": "Map_52b3c5c0-f985-11e8-9d85-bb62436f5ec6",
  "componentType": "Map",
  "displayName": "AIRBORNE ARRIVALS 2",
  "active": true,
  "metadata": {
    "id": 3,
    "type": "Tile",
    "parent": 1,
    "props": {
      "jsonRootProperty": "AirborneArrivals",
      "commandName": "tableGetAirbornArrivals",
      "schema": [
        {
          "key": "guid",
          "type": "string",
          "internal": true,
          "display": false,
          "mouseover": false,
          "jsonPath": "guid",
          "defaultDisplayName": "GUID"
        },
        {
          "key": "flightid",
          "type": "string",
          "internal": false,
          "display": true,
          "mouseover": false,
          "jsonPath": "flightid",
          "defaultDisplayName": "Flight #"
        },
        {
          "key": "dest",
          "type": "string",
          "internal": false,
          "display": true,
          "mouseover": false,
          "jsonPath": "destination",
          "defaultDisplayName": "Destination"
        },
        {
          "key": "dest_gate",
          "type": "string",
          "internal": false,
          "display": true,
          "mouseover": false,
          "jsonPath": "destination_gate",
          "defaultDisplayName": "Gate"
        },
        {
          "key": "origin",
          "type": "string",
          "internal": false,
          "display": true,
          "mouseover": false,
          "jsonPath": "origin",
          "defaultDisplayName": "Origin"
        },
        {
          "key": "origin_gate",
          "type": "string",
          "internal": false,
          "display": false,
          "mouseover": false,
          "jsonPath": "origin_gate",
          "defaultDisplayName": "Origin Gate"
        },
        {
          "key": "actype",
          "type": "string",
          "internal": false,
          "display": true,
          "mouseover": false,
          "jsonPath": "actype",
          "defaultDisplayName": "Actype"
        },
        {
          "key": "sta",
          "type": "date",
          "internal": false,
          "display": true,
          "mouseover": false,
          "jsonPath": "STA",
          "defaultDisplayName": "STA"
        },
        {
          "key": "EONpassur",
          "type": "date",
          "internal": false,
          "display": true,
          "mouseover": false,
          "jsonPath": "EONpassur",
          "defaultDisplayName": "EON (Passur)"
        },
        {
          "key": "ETAcarrier",
          "type": "date",
          "internal": false,
          "display": true,
          "mouseover": false,
          "jsonPath": "ETAcarrier",
          "defaultDisplayName": "ETA (Carrier)"
        }
      ],
      "tileComponentID": "AirborneArrivalsTable",
      "tileID": "AirborneArrivalsTable_d210c2f0-f994-11e8-b3c6-dde4579a03d7",
      "tileTitle": "AIRBORNE ARRIVALS 2"
    },
    "isDirty": false
  },
  "isDirty": false
}