{
  "active": true,
  "componentID": "AirborneArrivalsTable_e2fa3000-f9a4-11e8-a2c7-bd605ef3d1a7",
  "componentType": "AirborneArrivalsTable",
  "metadata": {
    "jsonRootProperty": "AirborneArrivals",
    "commandName": "tableGetAirbornArrivals",
    "schema": [
      {
        "key": "guid",
        "type": "string",
        "internal": true,
        "display": false,
        "mouseover": false,
        "jsonPath": "guid",
        "defaultDisplayName": "GUID"
      },
      {
        "key": "flightid",
        "type": "string",
        "internal": false,
        "display": true,
        "mouseover": false,
        "jsonPath": "flightid",
        "defaultDisplayName": "Flight #"
      },
      {
        "key": "dest",
        "type": "string",
        "internal": false,
        "display": true,
        "mouseover": false,
        "jsonPath": "destination",
        "defaultDisplayName": "Destination"
      },
      {
        "key": "dest_gate",
        "type": "string",
        "internal": false,
        "display": true,
        "mouseover": false,
        "jsonPath": "destination_gate",
        "defaultDisplayName": "Gate"
      },
      {
        "key": "origin",
        "type": "string",
        "internal": false,
        "display": true,
        "mouseover": false,
        "jsonPath": "origin",
        "defaultDisplayName": "Origin"
      },
      {
        "key": "origin_gate",
        "type": "string",
        "internal": false,
        "display": false,
        "mouseover": false,
        "jsonPath": "origin_gate",
        "defaultDisplayName": "Origin Gate"
      },
      {
        "key": "actype",
        "type": "string",
        "internal": false,
        "display": true,
        "mouseover": false,
        "jsonPath": "actype",
        "defaultDisplayName": "Actype"
      },
      {
        "key": "sta",
        "type": "date",
        "internal": false,
        "display": true,
        "mouseover": false,
        "jsonPath": "STA",
        "defaultDisplayName": "STA"
      },
      {
        "key": "EONpassur",
        "type": "date",
        "internal": false,
        "display": true,
        "mouseover": false,
        "jsonPath": "EONpassur",
        "defaultDisplayName": "EON (Passur)"
      },
      {
        "key": "ETAcarrier",
        "type": "date",
        "internal": false,
        "display": true,
        "mouseover": false,
        "jsonPath": "ETAcarrier",
        "defaultDisplayName": "ETA (Carrier)"
      }
    ]
  },
  "isDirty": true
}