{
  "isEditable": true,
  "isSelectionDetail": true,
  "isShowRunway": true,
  "isShowRunwayLabel": true,
  "isShowGateLabel": true,
  "isFlightTagVisible": true,
  "mouseTagList": [],
  "selectedDetailList": [],
  "flightTagList": [],
  "mapSettings": {
    "width": 1438,
    "height": 882,
    "latitude": 40.6423,
    "longitude": -73.7882,
    "zoom": 12,
    "bearing": 0,
    "pitch": 0,
    "altitude": 1.5,
    "maxZoom": 20,
    "minZoom": 0,
    "maxPitch": 0,
    "minPitch": 0,
    "transitionDuration": 0,
    "transitionInterpolator": {
      "propNames": [
        "longitude",
        "latitude",
        "zoom",
        "bearing",
        "pitch"
      ]
    },
    "transitionInterruption": 1
  },
  "aircraftRings": {
    "active": false,
    "weight": "1"
  },
  "rangeRings": {
    "active": false,
    "rangeInputValue": "5",
    "rangeNoOfCirclesInputValue": "3",
    "ICAOIATAValues": [],
    "rangeICAOIATAInputValue": ""
  },
  "types": {
    "active": true,
    "types": [
      "GATE",
      "LABEL"
    ],
    "gateColor": "#000000",
    "labelColor": "#ffffff",
    "gateFontSize": 25,
    "LabelFontSize": 32
  },
  "filters": {
    "colorFilters": [],
    "international": false,
    "airlines": {
      "active": true,
      "airlines": [
        "AAL",
        "SWA"
      ]
    },
    "airports": {
      "active": true,
      "airports": [
        "KATL",
        "LFPG",
        "KDAL"
      ]
    },
    "types": {
      "active": true,
      "types": [
        "GATE",
        "LABEL"
      ],
      "gateColor": "#000000",
      "labelColor": "#ffffff",
      "gateFontSize": 25,
      "LabelFontSize": 32
    }
  },
  "flightDataOptions": [
    {
      "label": "Flight #",
      "value": 1,
      "primaryTag": "flightid",
      "secondaryTag": null,
      "digit": null
    },
    {
      "label": "Origin",
      "value": 2,
      "primaryTag": "origin",
      "secondaryTag": null,
      "digit": null
    },
    {
      "label": "Destination",
      "value": 3,
      "primaryTag": "destination",
      "secondaryTag": null,
      "digit": null
    },
    {
      "label": "ETA",
      "value": 4,
      "primaryTag": "ETA",
      "secondaryTag": null,
      "digit": null
    },
    {
      "label": "ETD",
      "value": 5,
      "primaryTag": "ETD",
      "secondaryTag": null,
      "digit": null
    },
    {
      "label": "Aircraft",
      "value": 6,
      "primaryTag": "aircraft",
      "secondaryTag": "actype",
      "digit": null
    },
    {
      "label": "Altitude",
      "value": 7,
      "primaryTag": "position",
      "secondaryTag": "altitude",
      "digit": null
    },
    {
      "label": "Eventtime",
      "value": 8,
      "primaryTag": "eventtime",
      "secondaryTag": null,
      "digit": null
    },
    {
      "label": "AC size",
      "value": 9,
      "primaryTag": "acsize",
      "secondaryTag": null,
      "digit": null
    },
    {
      "label": "Tail",
      "value": 10,
      "primaryTag": "tail",
      "secondaryTag": null,
      "digit": null
    },
    {
      "label": "Longitude",
      "value": 11,
      "primaryTag": "position",
      "secondaryTag": "longitude",
      "digit": 6
    },
    {
      "label": "Heading",
      "value": 12,
      "primaryTag": "position",
      "secondaryTag": "heading",
      "digit": null
    },
    {
      "label": "Speed",
      "value": 13,
      "primaryTag": "position",
      "secondaryTag": "speed",
      "digit": null
    },
    {
      "label": "Latitude",
      "value": 14,
      "primaryTag": "position",
      "secondaryTag": "latitude",
      "digit": 6
    }
  ],
  "Convective": true,
  "Satellite": false,
  "Precipitation": false,
  "Lightning": false,
  "Surface Winds": false,
  "Winds Aloft": false,
  "Forecast Radar": false
}