{
  "isEditable": true,
  "isSelectionDetail": true,
  "mouseTagList": [
    {
      "key": "aircraft",
      "type": "string",
      "display": true,
      "available": true,
      "displayName": "Aircraft",
      "jsonPath": "aircraft.actype"
    },
    {
      "key": "destination",
      "type": "string",
      "display": true,
      "available": true,
      "mouseover": true,
      "displayName": "Destination",
      "jsonPath": "destination"
    },
    {
      "key": "dest_gate",
      "type": "string",
      "display": true,
      "available": true,
      "displayName": "Destination gate",
      "jsonPath": "dest_gate"
    },
    {
      "key": "ETA",
      "type": "date",
      "display": true,
      "available": true,
      "displayName": "ETA",
      "jsonPath": "ETA"
    },
    {
      "key": "tail",
      "type": "string",
      "display": true,
      "available": true,
      "displayName": "Tail",
      "jsonPath": "aircraft.tail"
    }
  ],
  "selectedDetailList": [
    {
      "key": "aircraft",
      "type": "string",
      "display": true,
      "available": true,
      "displayName": "Aircraft",
      "jsonPath": "aircraft.actype"
    },
    {
      "key": "destination",
      "type": "string",
      "display": true,
      "available": true,
      "mouseover": true,
      "displayName": "Destination",
      "jsonPath": "destination"
    },
    {
      "key": "dest_gate",
      "type": "string",
      "display": true,
      "available": true,
      "displayName": "Destination gate",
      "jsonPath": "dest_gate"
    },
    {
      "key": "ETA",
      "type": "date",
      "display": true,
      "available": true,
      "displayName": "ETA",
      "jsonPath": "ETA"
    },
    {
      "key": "tail",
      "type": "string",
      "display": true,
      "available": true,
      "displayName": "Tail",
      "jsonPath": "aircraft.tail"
    }
  ],
  "mapSettings": {
    "width": 719,
    "height": 633,
    "latitude": 42.20792465101536,
    "longitude": -83.35669111552558,
    "zoom": 15.282263929315183,
    "bearing": -62.0282979420638,
    "pitch": 0,
    "altitude": 1.5,
    "maxZoom": 20,
    "minZoom": 0,
    "maxPitch": 0,
    "minPitch": 0,
    "transitionDuration": 300,
    "transitionInterpolator": {
      "propNames": [
        "longitude",
        "latitude",
        "zoom",
        "bearing",
        "pitch"
      ],
      "around": [
        339,
        305
      ]
    },
    "transitionInterruption": 1
  },
  "aircraftRings": {
    "active": false,
    "weight": "1"
  },
  "rangeRings": {
    "active": false,
    "rangeInputValue": "5",
    "rangeNoOfCirclesInputValue": "3",
    "ICAOIATAValues": [],
    "rangeICAOIATAInputValue": ""
  },
  "types": {
    "active": true,
    "types": [
      "GATE",
      "LABEL"
    ],
    "gateColor": "#000000",
    "labelColor": "#ffffff",
    "gateFontSize": 25,
    "LabelFontSize": 32
  },
  "filters": {
    "colorFilters": [
      {
        "id": "Filter_24d3e160-edb1-11e8-9d39-391212318d96",
        "name": "DTW DAL Arr",
        "active": true,
        "airlines": [
          {
            "ICAO": "DAL",
            "IATA": "DL",
            "name": "Delta Air Lines"
          }
        ],
        "origin": [],
        "destination": [
          {
            "ICAO": "KDTW",
            "IATA": "DTW",
            "name": "Detroit Metropolitan Wayne County Airport",
            "countryCode": "US",
            "cityCode": "DTT",
            "latitude": 42.2078,
            "longitude": -83.356,
            "elevation": 640,
            "UTCoffset": -4,
            "region": "North America",
            "timeZoneRegion": "America/New_York"
          }
        ],
        "color": "#f40303",
        "match": "0"
      },
      {
        "name": "DAL DTW Dep",
        "airlines": [
          {
            "ICAO": "DAL",
            "IATA": "DL",
            "name": "Delta Air Lines"
          }
        ],
        "origin": [
          {
            "ICAO": "KDTW",
            "IATA": "DTW",
            "name": "Detroit Metropolitan Wayne County Airport",
            "countryCode": "US",
            "cityCode": "DTT",
            "latitude": 42.2078,
            "longitude": -83.356,
            "elevation": 640,
            "UTCoffset": -4,
            "region": "North America",
            "timeZoneRegion": "America/New_York"
          }
        ],
        "destination": [],
        "color": "#024712",
        "match": "0",
        "id": "Filter_ba46e4d0-edb2-11e8-a280-f52bab866ab0"
      },
      {
        "id": "Filter_ba46e4d0-edb2-11e8-a280-f52bab866ab0",
        "name": "DAL DTW Dep",
        "active": true,
        "airlines": [
          {
            "ICAO": "DAL",
            "IATA": "DL",
            "name": "Delta Air Lines"
          }
        ],
        "origin": [
          {
            "ICAO": "KDTW",
            "IATA": "DTW",
            "name": "Detroit Metropolitan Wayne County Airport",
            "countryCode": "US",
            "cityCode": "DTT",
            "latitude": 42.2078,
            "longitude": -83.356,
            "elevation": 640,
            "UTCoffset": -4,
            "region": "North America",
            "timeZoneRegion": "America/New_York"
          }
        ],
        "destination": [],
        "color": "#08f43d",
        "match": "0"
      },
      {
        "id": "Filter_ba46e4d0-edb2-11e8-a280-f52bab866ab0",
        "name": "DAL DTW Dep",
        "active": true,
        "airlines": [
          {
            "ICAO": "DAL",
            "IATA": "DL",
            "name": "Delta Air Lines"
          }
        ],
        "origin": [
          {
            "ICAO": "KDTW",
            "IATA": "DTW",
            "name": "Detroit Metropolitan Wayne County Airport",
            "countryCode": "US",
            "cityCode": "DTT",
            "latitude": 42.2078,
            "longitude": -83.356,
            "elevation": 640,
            "UTCoffset": -4,
            "region": "North America",
            "timeZoneRegion": "America/New_York"
          }
        ],
        "destination": [],
        "color": "#08f479",
        "match": "0"
      },
      {
        "id": "Filter_ba46e4d0-edb2-11e8-a280-f52bab866ab0",
        "name": "DAL DTW Dep",
        "active": true,
        "airlines": [
          {
            "ICAO": "DAL",
            "IATA": "DL",
            "name": "Delta Air Lines"
          }
        ],
        "origin": [
          {
            "ICAO": "KDTW",
            "IATA": "DTW",
            "name": "Detroit Metropolitan Wayne County Airport",
            "countryCode": "US",
            "cityCode": "DTT",
            "latitude": 42.2078,
            "longitude": -83.356,
            "elevation": 640,
            "UTCoffset": -4,
            "region": "North America",
            "timeZoneRegion": "America/New_York"
          }
        ],
        "destination": [],
        "color": "#2b09ce",
        "match": "0"
      },
      {
        "id": "Filter_ba46e4d0-edb2-11e8-a280-f52bab866ab0",
        "name": "DAL DTW Dep",
        "active": true,
        "airlines": [
          {
            "ICAO": "DAL",
            "IATA": "DL",
            "name": "Delta Air Lines"
          }
        ],
        "origin": [
          {
            "ICAO": "KDTW",
            "IATA": "DTW",
            "name": "Detroit Metropolitan Wayne County Airport",
            "countryCode": "US",
            "cityCode": "DTT",
            "latitude": 42.2078,
            "longitude": -83.356,
            "elevation": 640,
            "UTCoffset": -4,
            "region": "North America",
            "timeZoneRegion": "America/New_York"
          }
        ],
        "destination": [],
        "color": "#2b09ce",
        "match": "0"
      },
      {
        "id": "Filter_ba46e4d0-edb2-11e8-a280-f52bab866ab0",
        "name": "DAL DTW Dep",
        "active": true,
        "airlines": [
          {
            "ICAO": "DAL",
            "IATA": "DL",
            "name": "Delta Air Lines"
          }
        ],
        "origin": [
          {
            "ICAO": "KDTW",
            "IATA": "DTW",
            "name": "Detroit Metropolitan Wayne County Airport",
            "countryCode": "US",
            "cityCode": "DTT",
            "latitude": 42.2078,
            "longitude": -83.356,
            "elevation": 640,
            "UTCoffset": -4,
            "region": "North America",
            "timeZoneRegion": "America/New_York"
          }
        ],
        "destination": [],
        "color": "#2f08e8",
        "match": "0"
      }
    ],
    "international": false,
    "airlines": {
      "active": true,
      "airlines": [
        "AAL",
        "SWA"
      ]
    },
    "airports": {
      "active": true,
      "airports": [
        "KATL",
        "LFPG",
        "KDAL"
      ]
    },
    "types": {
      "active": true,
      "types": [
        "GATE",
        "LABEL"
      ],
      "gateColor": "#000000",
      "labelColor": "#ffffff",
      "gateFontSize": 25,
      "LabelFontSize": 32
    }
  },
  "flightDataOptions": [
    {
      "label": "Flight #",
      "value": 1,
      "primaryTag": "flightid",
      "secondaryTag": null,
      "digit": null
    },
    {
      "label": "Origin",
      "value": 2,
      "primaryTag": "origin",
      "secondaryTag": null,
      "digit": null
    },
    {
      "label": "Destination",
      "value": 3,
      "primaryTag": "destination",
      "secondaryTag": null,
      "digit": null
    },
    {
      "label": "ETA",
      "value": 4,
      "primaryTag": "ETA",
      "secondaryTag": null,
      "digit": null
    },
    {
      "label": "ETD",
      "value": 5,
      "primaryTag": "ETD",
      "secondaryTag": null,
      "digit": null
    },
    {
      "label": "Aircraft",
      "value": 6,
      "primaryTag": "aircraft",
      "secondaryTag": "actype",
      "digit": null
    },
    {
      "label": "Altitude",
      "value": 7,
      "primaryTag": "position",
      "secondaryTag": "altitude",
      "digit": null
    },
    {
      "label": "Eventtime",
      "value": 8,
      "primaryTag": "eventtime",
      "secondaryTag": null,
      "digit": null
    },
    {
      "label": "AC size",
      "value": 9,
      "primaryTag": "acsize",
      "secondaryTag": null,
      "digit": null
    },
    {
      "label": "Tail",
      "value": 10,
      "primaryTag": "tail",
      "secondaryTag": null,
      "digit": null
    },
    {
      "label": "Longitude",
      "value": 11,
      "primaryTag": "position",
      "secondaryTag": "longitude",
      "digit": 6
    },
    {
      "label": "Heading",
      "value": 12,
      "primaryTag": "position",
      "secondaryTag": "heading",
      "digit": null
    },
    {
      "label": "Speed",
      "value": 13,
      "primaryTag": "position",
      "secondaryTag": "speed",
      "digit": null
    },
    {
      "label": "Latitude",
      "value": 14,
      "primaryTag": "position",
      "secondaryTag": "latitude",
      "digit": 6
    }
  ],
  "Convective": true,
  "Satellite": false,
  "Precipitation": false,
  "Lightning": false,
  "Surface Winds": false,
  "Winds Aloft": false,
  "Forecast Radar": false,
  "isMouseOver": true,
  "isShowRunway": true,
  "isShowRunwayLabel": false,
  "isShowGateLabel": false,
  "isFlightTagVisible": true,
  "flightTagList": [],
  "iconSize": "12"
}