{
  "elements": [
    {
      "elementHdr": {
        "type": "layout",
        "id": "layout_1cef0cf0-e3a6-11e8-9f32-f2801f1b9fd1",
        "title": "My Layout",
        "active": true
      },
      "1": {
        "id": 1,
        "type": "SplitPane",
        "props": {
          "split": "vertical",
          "defaultSize": "50%",
          "className": "pane1NoScroll"
        }
      },
      "2": {
        "id": 2,
        "type": "Tile",
        "parent": 1,
        "props": {
          "tileID": "GateConflictsTable_9100eda0-dc7d-11e8-87c8-6d1a6fcc16ee",
          "tileTitle": "Gate Conflicts",
          "tileComponentID": "GateConflictsTable"
        }
      },
      "3": {
        "id": 3,
        "type": "Tile",
        "parent": "1",
        "props": {
          "tileID": "Map_3b9d7846-dc7e-11e8-9f8b-f2801f1b9fd1",
          "tileTitle": "Default Airport",
          "tileComponentID": "Map",
          "settings": {
            "isEditable": true,
            "isSelectionDetail": true,
            "mapSettings": {
              "shouldReRender": true,
              "width": 400,
              "height": 400,
              "display": "inline",
              "latitude": 33.640815,
              "longitude": -84.427858,
              "zoom": 12,
              "bearing": 0,
              "mapboxApiAccessToken": "pk.eyJ1IjoiamlhbGlucGFzc3VyIiwiYSI6ImNqZ3h1YWYxdzI0ZGIycXA2ZDFqeGd3YWcifQ.toD9-HQ6-1injN2kpgpQbg"
            },
            "filters": {
              "international": false,
              "airlines": {
                "active": true,
                "airlines": [
                  "AAL",
                  "SWA"
                ]
              },
              "airports": {
                "active": true,
                "airports": [
                  "KATL",
                  "LFPG",
                  "KDAL"
                ]
              },
              "types": {
                "active": true,
                "types": [
                  "GATE",
                  "LABEL"
                ],
                "gateColor": "#000000",
                "labelColor": "#ffffff",
                "gateFontSize": 25,
                "LabelFontSize": 32
              },
              "aircraftRings": {
                "active": true,
                "weight": 1
              }
            },
            "flightDataOptions": [
              {
                "label": "Flight #",
                "value": 1,
                "primaryTag": "flightid",
                "secondaryTag": null,
                "digit": null
              },
              {
                "label": "Origin",
                "value": 2,
                "primaryTag": "origin",
                "secondaryTag": null,
                "digit": null
              },
              {
                "label": "Destination",
                "value": 3,
                "primaryTag": "destination",
                "secondaryTag": null,
                "digit": null
              },
              {
                "label": "ETA",
                "value": 4,
                "primaryTag": "ETA",
                "secondaryTag": null,
                "digit": null
              },
              {
                "label": "ETD",
                "value": 5,
                "primaryTag": "ETD",
                "secondaryTag": null,
                "digit": null
              },
              {
                "label": "Aircraft",
                "value": 6,
                "primaryTag": "aircraft",
                "secondaryTag": "actype",
                "digit": null
              },
              {
                "label": "Altitude",
                "value": 7,
                "primaryTag": "position",
                "secondaryTag": "altitude",
                "digit": null
              },
              {
                "label": "Eventtime",
                "value": 8,
                "primaryTag": "eventtime",
                "secondaryTag": null,
                "digit": null
              },
              {
                "label": "AC size",
                "value": 9,
                "primaryTag": "acsize",
                "secondaryTag": null,
                "digit": null
              },
              {
                "label": "Tail",
                "value": 10,
                "primaryTag": "tail",
                "secondaryTag": null,
                "digit": null
              },
              {
                "label": "Longitude",
                "value": 11,
                "primaryTag": "position",
                "secondaryTag": "longitude",
                "digit": 6
              },
              {
                "label": "Heading",
                "value": 12,
                "primaryTag": "position",
                "secondaryTag": "heading",
                "digit": null
              },
              {
                "label": "Speed",
                "value": 13,
                "primaryTag": "position",
                "secondaryTag": "speed",
                "digit": null
              },
              {
                "label": "Latitude",
                "value": 14,
                "primaryTag": "position",
                "secondaryTag": "latitude",
                "digit": 6
              }
            ],
            "Convective": false,
            "Satellite": false,
            "Precipitation": false,
            "Lightning": false,
            "Surface Winds": false,
            "Winds Aloft": false,
            "Forecast Radar": false
          }
        }
      }
    }
  ],
  "hdr": {
    "cmd": "userElementList",
    "userName": "arturo@passur.com",
    "status": "ok"
  }
}