{
  "elements": [
    {
      "elementHdr": {
        "type": "component",
        "id": "Map_630eb68f-e0fa-5ecc-887a-7c7a62614681",
        "title": "This is my map",
        "active": true
      },
      "settings": {
        "isEditable": true,
        "isSelectionDetail": true,
        "shouldReRender": true,
        "width": 400,
        "height": 400,
        "display": "inline",
        "latitude": 33.640815,
        "longitude": -84.427858,
        "zoom": 12,
        "bearing": 0,
        "mapboxApiAccessToken": "pk.eyJ1IjoiamlhbGlucGFzc3VyIiwiYSI6ImNqZ3h1YWYxdzI0ZGIycXA2ZDFqeGd3YWcifQ.toD9-HQ6-1injN2kpgpQbg",
        "aircraftRings": {
          "active": false,
          "wight": 1
        },
        "types": {
          "active": true,
          "types": [
            "GATE",
            "LABEL"
          ],
          "gateColor": "#000000",
          "labelColor": "#ffffff",
          "gateFontSize": 25,
          "LabelFontSize": 32
        }
      }
    }
  ],
  "hdr": {
    "cmd": "userElementList",
    "userName": "arturo@passur.com",
    "status": "ok"
  }
}