{
  "hdr": {
    "cmd": "userElementSave",
    "userName": "arturo@passur.com",
    "clientInfo": "userElementSave_f02464f1-fd53-11e8-9977-b729f45be21d",
    "serverInfo": null
  },
  "element": {
    "1": {
      "id": 1,
      "type": "SplitPane",
      "props": {
        "split": "vertical",
        "defaultSize": "100%",
        "className": "pane1NoScroll"
      }
    },
    "2": {
      "id": 2,
      "type": "PlaceHolder",
      "parent": 1
    },
    "3": {
      "id": 3,
      "type": "PlaceHolder",
      "parent": 1
    },
    "elementHdr": {
      "type": "layout",
      "id": "Layout_f02464f0-fd53-11e8-9977-b729f45be21d",
      "title": "Test Layout",
      "active": true
    }
  }
}