{
  "elementHdr": [
    {
      "id": "Layout_c39babc0-e9e2-11e8-a15d-19df3ead252d",
      "type": "layout",
      "title": "Howie 1",
      "active": true
    },
    {
      "id": "Layout_1143cd70-e903-11e8-bcde-e14c114b3743",
      "type": "layout",
      "active": true
    }
  ],
  "hdr": {
    "cmd": "userElementListHdrs",
    "build": "1811200938",
    "date": "2018-11-20 15:27:56Z",
    "userName": "debugme2@passur.com",
    "clientInfo": "3",
    "status": "ok"
  }
}